{
  "asyncapi" : "2.0.0",
  "id" : "urn:zbos-mqtt-api",
  "defaultContentType" : "application/json",
  "info" : {
    "title" : "Time",
    "version" : "2.12.1",
    "description" : "API for communication with ZBOS by Zora Robotics.",
    "contact" : {
      "email" : "info@zorarobotics.be"
    }
  },
  "channels" : {
    "zbos/time/info/get" : {
      "publish" : {
        "summary" : "Get Time information, such as the accuracy",
        "description" : "see <<zbos/time/info/response/{key}>> for response\n",
        "tags" : [ {
          "name" : "Time",
          "description" : "All time related topics."
        } ],
        "message" : {
          "$ref" : "#/components/messages/keyMessage"
        }
      }
    },
    "zbos/time/info/response/{key}" : {
      "subscribe" : {
        "summary" : "response: Time information",
        "description" : "",
        "tags" : [ {
          "name" : "Time",
          "description" : "All time related topics."
        } ],
        "message" : {
          "payload" : {
            "type" : "object",
            "properties" : {
              "accurate" : {
                "type" : "boolean"
              }
            }
          },
          "name" : "TimeInfo",
          "examples" : [ {
            "payload" : {
              "accurate" : true
            }
          } ]
        }
      },
      "parameters" : {
        "key" : {
          "description" : "Request key to create a unique subscription topic",
          "schema" : {
            "type" : "string"
          }
        }
      }
    },
    "zbos/quiet/hours" : {
      "publish" : {
        "summary" : "Quiet hours",
        "description" : "",
        "tags" : [ {
          "name" : "Time",
          "description" : "All time related topics."
        } ],
        "message" : {
          "$ref" : "#/components/messages/emptyMessage"
        }
      }
    },
    "zbos/scheduler/save" : {
      "publish" : {
        "summary" : "Save schedule",
        "description" : "",
        "tags" : [ {
          "name" : "Time",
          "description" : "All time related topics."
        } ],
        "message" : {
          "$ref" : "#/components/messages/emptyMessage"
        }
      }
    },
    "zbos/scheduler/save/event" : {
      "subscribe" : {
        "summary" : "event: Schedule saved",
        "description" : "",
        "tags" : [ {
          "name" : "Time",
          "description" : "All time related topics."
        } ],
        "message" : {
          "payload" : {
            "type" : "object",
            "properties" : {
              "id" : {
                "type" : "string"
              },
              "name" : {
                "type" : "string"
              }
            }
          },
          "name" : "SimpleScheduler",
          "examples" : [ {
            "payload" : {
              "id" : "string",
              "name" : "string"
            }
          } ]
        }
      }
    },
    "zbos/scheduler/load" : {
      "publish" : {
        "summary" : "Get schedule",
        "description" : "see <<zbos/scheduler/load/response/{key}>> for response\n",
        "tags" : [ {
          "name" : "Time",
          "description" : "All time related topics."
        } ],
        "message" : {
          "payload" : {
            "type" : "object",
            "properties" : {
              "id" : {
                "type" : "string"
              },
              "name" : {
                "type" : "string"
              }
            }
          },
          "name" : "SimpleScheduler",
          "examples" : [ {
            "payload" : {
              "id" : "string"
            }
          } ]
        }
      }
    },
    "zbos/scheduler/load/response/{key}" : {
      "subscribe" : {
        "summary" : "response: Get schedule",
        "description" : "",
        "tags" : [ {
          "name" : "Time",
          "description" : "All time related topics."
        } ],
        "message" : {
          "payload" : {
            "type" : "string"
          },
          "name" : "String"
        }
      },
      "parameters" : {
        "key" : {
          "description" : "Request key to create a unique subscription topic",
          "schema" : {
            "type" : "string"
          }
        }
      }
    },
    "zbos/scheduler/delete" : {
      "publish" : {
        "summary" : "Delete schedule",
        "description" : "",
        "tags" : [ {
          "name" : "Time",
          "description" : "All time related topics."
        } ],
        "message" : {
          "payload" : {
            "type" : "object",
            "properties" : {
              "id" : {
                "type" : "string"
              },
              "name" : {
                "type" : "string"
              }
            }
          },
          "name" : "SimpleScheduler",
          "examples" : [ {
            "payload" : {
              "id" : "string"
            }
          } ]
        }
      }
    },
    "zbos/composition/delete/all" : {
      "publish" : {
        "summary" : "Deletes all compositions",
        "description" : "see <<zbos/composition/delete/response>> for response\n",
        "tags" : [ {
          "name" : "Time",
          "description" : "All time related topics."
        } ],
        "message" : {
          "$ref" : "#/components/messages/emptyMessage"
        }
      }
    },
    "zbos/scheduler/delete/event" : {
      "subscribe" : {
        "summary" : "event: Schedule deleted",
        "description" : "",
        "tags" : [ {
          "name" : "Time",
          "description" : "All time related topics."
        } ],
        "message" : {
          "payload" : {
            "type" : "string"
          },
          "name" : "String"
        }
      }
    },
    "zbos/scheduler/list/get" : {
      "publish" : {
        "summary" : "Get all schedules",
        "description" : "see <<zbos/scheduler/list/response/{key}>> for response\n",
        "tags" : [ {
          "name" : "Time",
          "description" : "All time related topics."
        } ],
        "message" : {
          "$ref" : "#/components/messages/keyMessage"
        }
      }
    },
    "zbos/scheduler/list/response/{key}" : {
      "subscribe" : {
        "summary" : "response: Get all schedules",
        "description" : "",
        "tags" : [ {
          "name" : "Time",
          "description" : "All time related topics."
        } ],
        "message" : {
          "payload" : {
            "type" : "array",
            "items" : {
              "type" : "object",
              "properties" : {
                "id" : {
                  "type" : "string"
                },
                "name" : {
                  "type" : "string"
                }
              }
            }
          },
          "name" : "Array<SimpleScheduler>",
          "examples" : [ {
            "payload" : {
              "id" : "string",
              "name" : "string"
            }
          } ]
        }
      },
      "parameters" : {
        "key" : {
          "description" : "Request key to create a unique subscription topic",
          "schema" : {
            "type" : "string"
          }
        }
      }
    },
    "zbos/scheduler/start" : {
      "publish" : {
        "summary" : "Start schedule by name",
        "description" : "",
        "tags" : [ {
          "name" : "Time",
          "description" : "All time related topics."
        } ],
        "message" : {
          "payload" : {
            "type" : "object",
            "properties" : {
              "id" : {
                "type" : "string"
              },
              "name" : {
                "type" : "string"
              }
            }
          },
          "name" : "SimpleScheduler",
          "examples" : [ {
            "payload" : {
              "name" : "string"
            }
          } ]
        }
      }
    },
    "zbos/scheduler/start/event" : {
      "subscribe" : {
        "summary" : "event: Started schedule",
        "description" : "",
        "tags" : [ {
          "name" : "Time",
          "description" : "All time related topics."
        } ],
        "message" : {
          "payload" : {
            "type" : "string"
          },
          "name" : "String"
        }
      }
    },
    "zbos/scheduler/start/id" : {
      "publish" : {
        "summary" : "Start schedule by id",
        "description" : "",
        "tags" : [ {
          "name" : "Time",
          "description" : "All time related topics."
        } ],
        "message" : {
          "payload" : {
            "type" : "object",
            "properties" : {
              "id" : {
                "type" : "string"
              },
              "name" : {
                "type" : "string"
              }
            }
          },
          "name" : "SimpleScheduler",
          "examples" : [ {
            "payload" : {
              "id" : "string"
            }
          } ]
        }
      }
    },
    "zbos/scheduler/stop" : {
      "publish" : {
        "summary" : "Stop schedule",
        "description" : "",
        "tags" : [ {
          "name" : "Time",
          "description" : "All time related topics."
        } ],
        "message" : {
          "$ref" : "#/components/messages/emptyMessage"
        }
      }
    },
    "zbos/scheduler/stop/event" : {
      "subscribe" : {
        "summary" : "event: Schedule stopped",
        "description" : "",
        "tags" : [ {
          "name" : "Time",
          "description" : "All time related topics."
        } ],
        "message" : {
          "payload" : {
            "type" : "string"
          },
          "name" : "String"
        }
      }
    },
    "zbos/scheduler/current/get" : {
      "publish" : {
        "summary" : "Get current schedule",
        "description" : "see <<zbos/scheduler/current/get/response/{key}>> for response\n",
        "tags" : [ {
          "name" : "Time",
          "description" : "All time related topics."
        } ],
        "message" : {
          "$ref" : "#/components/messages/keyMessage"
        }
      }
    },
    "zbos/scheduler/current/get/response/{key}" : {
      "subscribe" : {
        "summary" : "response: Get current schedule",
        "description" : "",
        "tags" : [ {
          "name" : "Time",
          "description" : "All time related topics."
        } ],
        "message" : {
          "payload" : {
            "type" : "string"
          },
          "name" : "String"
        }
      },
      "parameters" : {
        "key" : {
          "description" : "Request key to create a unique subscription topic",
          "schema" : {
            "type" : "string"
          }
        }
      }
    }
  },
  "components" : {
    "schemas" : {
      "percentage" : {
        "description" : "Percentage value between with range 0 to 100",
        "type" : "integer",
        "maximum" : 100,
        "minimum" : 0
      },
      "key" : {
        "description" : "Required random key",
        "type" : "string"
      }
    },
    "messages" : {
      "emptyMessage" : {
        "name" : "EmptyMessage",
        "summary" : "Empty message"
      },
      "keyMessage" : {
        "payload" : {
          "type" : "object",
          "properties" : {
            "key" : {
              "description" : "Required random key",
              "type" : "string"
            }
          }
        },
        "name" : "KeyResult",
        "summary" : "Random key",
        "examples" : [ {
          "payload" : {
            "key" : "ABCxyz"
          }
        } ]
      },
      "successMessage" : {
        "payload" : {
          "type" : "object",
          "properties" : {
            "success" : {
              "type" : "boolean"
            },
            "message" : {
              "description" : "Optional error message",
              "type" : "string"
            }
          }
        },
        "name" : "SuccessMessage",
        "summary" : "Success message",
        "examples" : [ {
          "payload" : {
            "success" : true
          }
        } ]
      },
      "notificationMessage" : {
        "payload" : {
          "type" : "object",
          "properties" : {
            "message" : {
              "type" : "object",
              "properties" : {
                "message" : {
                  "type" : "string"
                },
                "translate" : {
                  "type" : "boolean"
                },
                "formatArguments" : {
                  "type" : "array",
                  "items" : {
                    "type" : "string"
                  }
                },
                "translationCategory" : {
                  "type" : "string"
                }
              }
            }
          }
        },
        "name" : "NotificationOptions",
        "summary" : "Message json",
        "examples" : [ {
          "payload" : {
            "message" : {
              "message" : "string",
              "translate" : true,
              "formatArguments" : [ "string" ]
            }
          }
        } ]
      }
    }
  },
  "tags" : [ {
    "name" : "Speech",
    "description" : "All speech related topics."
  }, {
    "name" : "Motion",
    "description" : "All motion related topics."
  }, {
    "name" : "Audio",
    "description" : "All audio related topics."
  }, {
    "name" : "Status",
    "description" : "All status related topics."
  }, {
    "name" : "System",
    "description" : "All system related topics."
  }, {
    "name" : "Sensors",
    "description" : "All sensors related topics."
  }, {
    "name" : "Leds",
    "description" : "All leds related topics."
  }, {
    "name" : "Composer",
    "description" : "All composer related topics."
  }, {
    "name" : "Kiosk",
    "description" : "All kiosk related topics."
  }, {
    "name" : "Media",
    "description" : "All media related topics."
  }, {
    "name" : "Applications",
    "description" : "All applications related topics."
  }, {
    "name" : "Translations",
    "description" : "All translations related topics."
  }, {
    "name" : "Settings",
    "description" : "All settings related topics."
  }, {
    "name" : "Camera",
    "description" : "All camera related topics."
  }, {
    "name" : "Domotics",
    "description" : "All domotics related topics."
  }, {
    "name" : "Cloud",
    "description" : "All cloud related topics."
  }, {
    "name" : "SLAM",
    "description" : "All slam related topics."
  }, {
    "name" : "Wifi",
    "description" : "All wifi related topics."
  }, {
    "name" : "Connection",
    "description" : "All connection related topics."
  }, {
    "name" : "Survey",
    "description" : "All survey related topics."
  }, {
    "name" : "Motion detection",
    "description" : "All motion detection related topics."
  }, {
    "name" : "Face tracking",
    "description" : "All face tracking related topics."
  }, {
    "name" : "SIP",
    "description" : "All sip related topics."
  }, {
    "name" : "Time",
    "description" : "All time related topics."
  }, {
    "name" : "Variables",
    "description" : "All variables related topics."
  }, {
    "name" : "Diagnostics",
    "description" : "All diagnostics related topics."
  } ]
}