{
  "asyncapi" : "2.0.0",
  "id" : "urn:zbos-mqtt-api",
  "defaultContentType" : "application/json",
  "info" : {
    "title" : "Variables",
    "version" : "2.12.1",
    "description" : "API for communication with ZBOS by Zora Robotics.",
    "contact" : {
      "email" : "info@zorarobotics.be"
    }
  },
  "channels" : {
    "zbos/variables/get" : {
      "publish" : {
        "summary" : "Get all variables",
        "description" : "see <<zbos/variables/response/{key}>> for response\n",
        "tags" : [ {
          "name" : "Variables",
          "description" : "All variables related topics."
        } ],
        "message" : {
          "$ref" : "#/components/messages/keyMessage"
        }
      }
    },
    "zbos/variables/response/{key}" : {
      "subscribe" : {
        "summary" : "response: Get all variables",
        "description" : "",
        "tags" : [ {
          "name" : "Variables",
          "description" : "All variables related topics."
        } ],
        "message" : {
          "payload" : {
            "type" : "object",
            "properties" : {
              "variables" : {
                "description" : "A list of all variables, not present when status is false.",
                "type" : "array",
                "items" : {
                  "type" : "object",
                  "properties" : {
                    "name" : {
                      "type" : "string"
                    },
                    "value" : {
                      "type" : "string"
                    },
                    "default" : {
                      "description" : "True if this is a default system variable and cannot be deleted",
                      "type" : "boolean"
                    },
                    "id" : {
                      "type" : "string"
                    },
                    "state" : {
                      "type" : "string"
                    }
                  }
                }
              },
              "status" : {
                "description" : "Will be present when status is false (error message)",
                "type" : "boolean"
              },
              "message" : {
                "type" : "string"
              }
            }
          },
          "name" : "GlobalVariables",
          "examples" : [ {
            "payload" : {
              "variables" : [ {
                "name" : "string",
                "value" : "string",
                "default" : true
              } ],
              "status" : true,
              "message" : "string"
            }
          } ]
        }
      },
      "parameters" : {
        "key" : {
          "description" : "Request key to create a unique subscription topic",
          "schema" : {
            "type" : "string"
          }
        }
      }
    },
    "zbos/variables/set" : {
      "publish" : {
        "summary" : "Set variables",
        "description" : "Saving the global variables on the robot.see <<zbos/variables/set/response/{key}>> for response\n",
        "tags" : [ {
          "name" : "Variables",
          "description" : "All variables related topics."
        } ],
        "message" : {
          "payload" : {
            "type" : "object",
            "properties" : {
              "variables" : {
                "description" : "A list of all variables, not present when status is false.",
                "type" : "array",
                "items" : {
                  "type" : "object",
                  "properties" : {
                    "name" : {
                      "type" : "string"
                    },
                    "value" : {
                      "type" : "string"
                    },
                    "default" : {
                      "description" : "True if this is a default system variable and cannot be deleted",
                      "type" : "boolean"
                    },
                    "id" : {
                      "type" : "string"
                    },
                    "state" : {
                      "type" : "string"
                    }
                  }
                }
              },
              "status" : {
                "description" : "Will be present when status is false (error message)",
                "type" : "boolean"
              },
              "message" : {
                "type" : "string"
              }
            }
          },
          "name" : "GlobalVariables"
        }
      }
    },
    "zbos/variables/set/response/{key}" : {
      "subscribe" : {
        "summary" : "response: indicates if the save was successful or not",
        "description" : "",
        "tags" : [ {
          "name" : "Variables",
          "description" : "All variables related topics."
        } ],
        "message" : {
          "payload" : {
            "type" : "object",
            "properties" : {
              "variables" : {
                "description" : "A list of all variables, not present when status is false.",
                "type" : "array",
                "items" : {
                  "type" : "object",
                  "properties" : {
                    "name" : {
                      "type" : "string"
                    },
                    "value" : {
                      "type" : "string"
                    },
                    "default" : {
                      "description" : "True if this is a default system variable and cannot be deleted",
                      "type" : "boolean"
                    },
                    "id" : {
                      "type" : "string"
                    },
                    "state" : {
                      "type" : "string"
                    }
                  }
                }
              },
              "status" : {
                "description" : "Will be present when status is false (error message)",
                "type" : "boolean"
              },
              "message" : {
                "type" : "string"
              }
            }
          },
          "name" : "GlobalVariables",
          "examples" : [ {
            "payload" : {
              "variables" : [ {
                "name" : "string",
                "value" : "string"
              } ],
              "status" : true,
              "message" : "string"
            }
          } ]
        }
      },
      "parameters" : {
        "key" : {
          "description" : "Request key to create a unique subscription topic",
          "schema" : {
            "type" : "string"
          }
        }
      }
    },
    "zbos/variables/set/value" : {
      "publish" : {
        "summary" : "Set variable value",
        "description" : "",
        "tags" : [ {
          "name" : "Variables",
          "description" : "All variables related topics."
        } ],
        "message" : {
          "payload" : {
            "type" : "object",
            "properties" : {
              "key" : {
                "type" : "string"
              },
              "variable" : {
                "type" : "object",
                "properties" : {
                  "name" : {
                    "type" : "string"
                  },
                  "value" : {
                    "type" : "string"
                  },
                  "default" : {
                    "description" : "True if this is a default system variable and cannot be deleted",
                    "type" : "boolean"
                  },
                  "id" : {
                    "type" : "string"
                  },
                  "state" : {
                    "type" : "string"
                  }
                }
              }
            }
          },
          "name" : "SetValueRequest",
          "examples" : [ {
            "payload" : {
              "key" : "test",
              "variable" : {
                "name" : "variableName",
                "value" : "newValue"
              }
            }
          } ]
        }
      }
    },
    "zbos/variables/set/value/response/{key}" : {
      "subscribe" : {
        "summary" : "response: Set variable value",
        "description" : "",
        "tags" : [ {
          "name" : "Variables",
          "description" : "All variables related topics."
        } ],
        "message" : {
          "$ref" : "#/components/messages/successMessage"
        }
      },
      "parameters" : {
        "key" : {
          "description" : "Request key to create a unique subscription topic",
          "schema" : {
            "type" : "string"
          }
        }
      }
    }
  },
  "components" : {
    "schemas" : {
      "percentage" : {
        "description" : "Percentage value between with range 0 to 100",
        "type" : "integer",
        "maximum" : 100,
        "minimum" : 0
      },
      "key" : {
        "description" : "Required random key",
        "type" : "string"
      }
    },
    "messages" : {
      "emptyMessage" : {
        "name" : "EmptyMessage",
        "summary" : "Empty message"
      },
      "keyMessage" : {
        "payload" : {
          "type" : "object",
          "properties" : {
            "key" : {
              "description" : "Required random key",
              "type" : "string"
            }
          }
        },
        "name" : "KeyResult",
        "summary" : "Random key",
        "examples" : [ {
          "payload" : {
            "key" : "ABCxyz"
          }
        } ]
      },
      "successMessage" : {
        "payload" : {
          "type" : "object",
          "properties" : {
            "success" : {
              "type" : "boolean"
            },
            "message" : {
              "description" : "Optional error message",
              "type" : "string"
            }
          }
        },
        "name" : "SuccessMessage",
        "summary" : "Success message",
        "examples" : [ {
          "payload" : {
            "success" : true
          }
        } ]
      },
      "notificationMessage" : {
        "payload" : {
          "type" : "object",
          "properties" : {
            "message" : {
              "type" : "object",
              "properties" : {
                "message" : {
                  "type" : "string"
                },
                "translate" : {
                  "type" : "boolean"
                },
                "formatArguments" : {
                  "type" : "array",
                  "items" : {
                    "type" : "string"
                  }
                },
                "translationCategory" : {
                  "type" : "string"
                }
              }
            }
          }
        },
        "name" : "NotificationOptions",
        "summary" : "Message json",
        "examples" : [ {
          "payload" : {
            "message" : {
              "message" : "string",
              "translate" : true,
              "formatArguments" : [ "string" ]
            }
          }
        } ]
      }
    }
  },
  "tags" : [ {
    "name" : "Speech",
    "description" : "All speech related topics."
  }, {
    "name" : "Motion",
    "description" : "All motion related topics."
  }, {
    "name" : "Audio",
    "description" : "All audio related topics."
  }, {
    "name" : "Status",
    "description" : "All status related topics."
  }, {
    "name" : "System",
    "description" : "All system related topics."
  }, {
    "name" : "Sensors",
    "description" : "All sensors related topics."
  }, {
    "name" : "Leds",
    "description" : "All leds related topics."
  }, {
    "name" : "Composer",
    "description" : "All composer related topics."
  }, {
    "name" : "Kiosk",
    "description" : "All kiosk related topics."
  }, {
    "name" : "Media",
    "description" : "All media related topics."
  }, {
    "name" : "Applications",
    "description" : "All applications related topics."
  }, {
    "name" : "Translations",
    "description" : "All translations related topics."
  }, {
    "name" : "Settings",
    "description" : "All settings related topics."
  }, {
    "name" : "Camera",
    "description" : "All camera related topics."
  }, {
    "name" : "Domotics",
    "description" : "All domotics related topics."
  }, {
    "name" : "Cloud",
    "description" : "All cloud related topics."
  }, {
    "name" : "SLAM",
    "description" : "All slam related topics."
  }, {
    "name" : "Wifi",
    "description" : "All wifi related topics."
  }, {
    "name" : "Connection",
    "description" : "All connection related topics."
  }, {
    "name" : "Survey",
    "description" : "All survey related topics."
  }, {
    "name" : "Motion detection",
    "description" : "All motion detection related topics."
  }, {
    "name" : "Face tracking",
    "description" : "All face tracking related topics."
  }, {
    "name" : "SIP",
    "description" : "All sip related topics."
  }, {
    "name" : "Time",
    "description" : "All time related topics."
  }, {
    "name" : "Variables",
    "description" : "All variables related topics."
  }, {
    "name" : "Diagnostics",
    "description" : "All diagnostics related topics."
  } ]
}